{
    "KPlugin": {
        "Description": "Provides a simple GDB frontend",
        "Description[az]": "Sadə bir GDB xarici interfeysi ilə təmin edir",
        "Description[ca@valencia]": "Proporciona un frontal de GDB senzill",
        "Description[ca]": "Proporciona un frontal de GDB senzill",
        "Description[cs]": "Poskytuje jednoduché rozhraní pro GDB",
        "Description[de]": "Stellt eine einfache GDB-Oberfläche zur Verfügung",
        "Description[el]": "Παρέχει ένα απλό περιβάλλον GDB",
        "Description[en_GB]": "Provides a simple GDB frontend",
        "Description[es]": "Proporciona una interfaz de GDB sencilla",
        "Description[eu]": "GDBren interfaze xume bat ematen du",
        "Description[fr]": "Fournit une interface simple pour GDB",
        "Description[ia]": "Il forni un simple fronte per GDB",
        "Description[it]": "Una semplice interfaccia GDB",
        "Description[ko]": "간단한 GDB 프론트엔드",
        "Description[nl]": "Levert een eenvoudige GDB-frontend",
        "Description[pl]": "Zapewnia prosty interfejs GDB",
        "Description[pt]": "Oferece uma interface simples para o GDB",
        "Description[sl]": "Zagotavlja preprosto čelno stran GDB",
        "Description[sv]": "Tillhandahåller ett enkelt gränssnitt för GDB",
        "Description[uk]": "Проста оболонка до GDB",
        "Description[vi]": "Cung cấp một tiền phương GDB đơn giản",
        "Description[x-test]": "xxProvides a simple GDB frontendxx",
        "Description[zh_CN]": "提供一个简单的 GDB 前端",
        "Name": "GDB",
        "Name[az]": "GDB",
        "Name[ca@valencia]": "GDB",
        "Name[ca]": "GDB",
        "Name[cs]": "GDB",
        "Name[de]": "GDB",
        "Name[el]": "GDB",
        "Name[en_GB]": "GDB",
        "Name[es]": "GDB",
        "Name[eu]": "GDB",
        "Name[fr]": "GDB",
        "Name[ia]": "GDB",
        "Name[it]": "GDB",
        "Name[ko]": "GDB",
        "Name[nl]": "GDB",
        "Name[pl]": "GDB",
        "Name[pt]": "GDB",
        "Name[sk]": "GDB",
        "Name[sl]": "GDB",
        "Name[sv]": "GDB",
        "Name[uk]": "GDB",
        "Name[vi]": "GDB",
        "Name[x-test]": "xxGDBxx",
        "Name[zh_CN]": "GDB",
        "ServiceTypes": [
            "KTextEditor/Plugin"
        ]
    }
}
