{
    "KPlugin": {
        "Description": "Language Server Protocol Client",
        "Description[az]": "Language Server Protocol dəstəyi",
        "Description[ca@valencia]": "Client del protocol de servidor de llenguatge",
        "Description[ca]": "Client del protocol de servidor de llenguatge",
        "Description[cs]": "Klient pro Language Server Protocol",
        "Description[de]": "Sprachserverprotokoll-Client",
        "Description[el]": "Εφαρμογή πρωτοκόλλου εξυπηρετητή γλώσσας",
        "Description[en_GB]": "Language Server Protocol Client",
        "Description[es]": "Cliente del protocolo de servidor de lenguaje",
        "Description[eu]": "Lengoaia zerbitzari protokoloaren bezeroa",
        "Description[fr]": "Client pour le protocole de serveur de langue",
        "Description[ia]": "Language Server Protocol Client (Cliente de protocollo de servitor de linguage)",
        "Description[it]": "Client Language Server Protocol",
        "Description[ko]": "언어 서버 프로토콜 클라이언트",
        "Description[nl]": "Language Server Protocol Client",
        "Description[pl]": "Klient protokołu języka serwera",
        "Description[pt]": "Cliente do Protocolo LSP (Language Server Protocol)",
        "Description[sl]": "Odjemalec Language Server Protokola",
        "Description[sv]": "Klient för språkserverprotokollet (Language Server Protocol)",
        "Description[uk]": "Клієнт протоколу сервера мов (LSP)",
        "Description[vi]": "Trình khách Giao thức Trình chủ Ngôn ngữ",
        "Description[x-test]": "xxLanguage Server Protocol Clientxx",
        "Description[zh_CN]": "语言服务器协议客户端",
        "Name": "LSP Client",
        "Name[az]": "LSP müştərisi",
        "Name[ca@valencia]": "Client LSP",
        "Name[ca]": "Client LSP",
        "Name[cs]": "Klient LSP",
        "Name[de]": "LSP-CLient",
        "Name[el]": "Πελάτης LSP",
        "Name[en_GB]": "LSP Client",
        "Name[es]": "Cliente LSP",
        "Name[eu]": "LSP bezeroa",
        "Name[fr]": "Client LSP",
        "Name[ia]": "Cliente LSP",
        "Name[it]": "Client LSP",
        "Name[ko]": "LSP 클라이언트",
        "Name[nl]": "LSP-client",
        "Name[pl]": "Klient LSP",
        "Name[pt]": "Cliente de LSP",
        "Name[sk]": "LSP Klient",
        "Name[sl]": "Odjemalec LSP",
        "Name[sv]": "LSP-klient",
        "Name[uk]": "Клієнт LSP",
        "Name[vi]": "Trình khách LSP",
        "Name[x-test]": "xxLSP Clientxx",
        "Name[zh_CN]": "LSP 客户端",
        "ServiceTypes": [
            "KTextEditor/Plugin"
        ]
    }
}
